{
  "applications": "*",
  "changelogDate": "20230104111848",
  "dto": "mapstruct",
  "embedded": false,
  "entityTableName": "missed_transaction_operation",
  "fields": [
    {
      "fieldName": "amount",
      "fieldType": "Double"
    },
    {
      "fieldName": "subsMsisdn",
      "fieldType": "String"
    },
    {
      "fieldName": "agentMsisdn",
      "fieldType": "String"
    },
    {
      "fieldName": "typeTransaction",
      "fieldType": "String"
    },
    {
      "fieldName": "createdAt",
      "fieldType": "Instant"
    },
    {
      "fieldName": "transactionStatus",
      "fieldType": "String"
    },
    {
      "fieldName": "senderZone",
      "fieldType": "String"
    },
    {
      "fieldName": "senderProfile",
      "fieldType": "String"
    },
    {
      "fieldName": "codeTerritory",
      "fieldType": "String"
    },
    {
      "fieldName": "subType",
      "fieldType": "String"
    },
    {
      "fieldName": "operationDate",
      "fieldType": "Instant"
    },
    {
      "fieldName": "isFraud",
      "fieldType": "Boolean"
    },
    {
      "fieldName": "taggedAt",
      "fieldType": "Instant"
    },
    {
      "fieldName": "fraudSource",
      "fieldType": "String"
    },
    {
      "fieldName": "comment",
      "fieldType": "String"
    },
    {
      "fieldName": "falsePositiveDetectedAt",
      "fieldType": "Instant"
    },
    {
      "fieldName": "tid",
      "fieldType": "String"
    },
    {
      "fieldName": "parentMsisdn",
      "fieldType": "String"
    },
    {
      "fieldName": "fctDt",
      "fieldType": "String"
    },
    {
      "fieldName": "parentId",
      "fieldType": "String"
    },
    {
      "fieldName": "canceledAt",
      "fieldType": "Instant"
    },
    {
      "fieldName": "canceledId",
      "fieldType": "String"
    },
    {
      "fieldName": "productId",
      "fieldType": "String"
    }
  ],
  "fluentMethods": true,
  "jpaMetamodelFiltering": true,
  "name": "MissedTransactionOperation",
  "pagination": "pagination",
  "readOnly": false,
  "relationships": [],
  "service": "serviceImpl",
  "skipClient": true
}
