{
  "applications": "*",
  "changelogDate": "20220525164544",
  "dto": "mapstruct",
  "embedded": false,
  "entityTableName": "transaction_operation",
  "fields": [
    {
      "fieldName": "amount",
      "fieldType": "Double"
    },
    {
      "fieldName": "subsMsisdn",
      "fieldType": "String"
    },
    {
      "fieldName": "agentMsisdn",
      "fieldType": "String"
    },
    {
      "fieldName": "typeTransaction",
      "fieldType": "String"
    },
    {
      "fieldName": "createdAt",
      "fieldType": "Instant"
    },
    {
      "fieldName": "transactionStatus",
      "fieldType": "String"
    },
    {
      "fieldName": "senderZone",
      "fieldType": "String"
    },
    {
      "fieldName": "senderProfile",
      "fieldType": "String"
    },
    {
      "fieldName": "codeTerritory",
      "fieldType": "String"
    },
    {
      "fieldName": "subType",
      "fieldType": "String"
    },
    {
      "fieldName": "operationShortDate",
      "fieldType": "LocalDate"
    },
    {
      "fieldName": "operationDate",
      "fieldType": "Instant"
    },
    {
      "fieldName": "isFraud",
      "fieldType": "Boolean"
    },
    {
      "fieldName": "taggedAt",
      "fieldType": "Instant"
    },
    {
      "fieldName": "fraudSource",
      "fieldType": "String"
    },
    {
      "fieldName": "comment",
      "fieldType": "String"
    },
    {
      "fieldName": "falsePositiveDetectedAt",
      "fieldType": "Instant"
    },
    {
      "fieldName": "tid",
      "fieldType": "String"
    },
    {
      "fieldName": "parentMsisdn",
      "fieldType": "String"
    },
    {
      "fieldName": "fctDt",
      "fieldType": "String"
    },
    {
      "fieldName": "parentId",
      "fieldType": "String"
    },
    {
      "fieldName": "canceledAt",
      "fieldType": "Instant"
    },
    {
      "fieldName": "canceledId",
      "fieldType": "String"
    },
    {
      "fieldName": "productId",
      "fieldType": "String"
    }
  ],
  "fluentMethods": true,
  "jpaMetamodelFiltering": true,
  "name": "TransactionOperation",
  "pagination": "pagination",
  "readOnly": false,
  "relationships": [
    {
      "otherEntityName": "commission",
      "otherEntityRelationshipName": "transactionOperation",
      "ownerSide": false,
      "relationshipName": "commissions",
      "relationshipType": "many-to-many"
    }
  ],
  "service": "serviceImpl"
}
