id;login;password_hash;first_name;last_name;email;image_url;activated;lang_key;created_by;last_modified_by;last_authentication_date
1;admin;$2a$10$gSAhZrxMllrbgj/kkK9UceBPpChGWJA7SYIb1Mqo.n5aNLq1/oRrC;Administrator;Administrator;admin@localhost;;true;fr;system;system;2022-09-13 10:47:20.381574
2;user;$2a$10$VEjxo0jq2YG9Rbk2HmX9S.k1uZBGYUHdUcid3g/vfiEl7lwWgOH/K;User;User;user@localhost;;true;fr;system;system;2022-09-13 10:47:20.381574
